R Code for Mastering ’Metrics
…
mlda_regs <- map_dfr(responses, run_reg)

mlda_regs %>%
  select(model, response, estimate, std.error) %>%
  gather(stat, value, estimate, std.error) %>%
  spread(model, value)
#> # A tibble: 12 x 6
#>   response stat    `Ages 19-22, Line… `Ages 19-22, Quad… `Ages 20-21, Lin…
#>   <chr>    <chr>                <dbl>              <dbl>             <dbl>
#> 1 alcohol  estima…              0.442              0.799             0.740
#> 2 alcohol  std.er…              0.152              0.222             0.227
#> 3 ext_oth  estima…              0.838              1.80              1.41 
#> 4 ext_oth  std.er…              0.489              0.724             0.636
#> 5 homicide estima…              0.104              0.200             0.164
#> 6 homicide std.er…              0.345              0.522             0.517
#> # ... with 6 more rows, and 1 more variable: `Ages 20-21, Quadratic` <dbl>
…
