…
```r
varlist <- c("hlth", "nwhite", "age", "yedu", "famsize", "empl", "inc")
NHIS2009_clean %>%
  # rlang::set_attrs with NULL removes attributes from columns.
  # this avoids a warning from gather about differing attributes
  map_dfc(~ rlang::set_attrs(.x, NULL)) %>%
  select(fml, hi, one_of(varlist)) %>% 
  gather(variable, value, -fml, -hi) %>%
  group_by(fml, hi, variable) %>%
  summarise(mean = mean(value, na.rm = TRUE), sd = sd(value, na.rm = TRUE)) %>%
  gather(stat, value, -fml, -hi, -variable) %>%
  unite(stat_hi, stat, hi) %>%
  spread(stat_hi, value) %>%
  mutate(diff = mean_1 - mean_0)
#> # A tibble: 14 x 7
#> # Groups:   fml [2]
#>   fml   variable    mean_0     mean_1      sd_0      sd_1        diff
#>   <lgl> <chr>        <dbl>      <dbl>     <dbl>     <dbl>       <dbl>
#> 1 FALSE age         41.3       44.2       8.40      8.61       2.89  
#> 2 FALSE empl         0.852      0.922     0.355     0.268      0.0701
#> 3 FALSE famsize      4.06       3.55      1.54      1.32      -0.506 
#> 4 FALSE hlth         3.70       3.98      1.01      0.934      0.278 
#> 5 FALSE inc      43636.    104002.    35690.    54815.     60366.    
#> 6 FALSE nwhite       0.188      0.200     0.391     0.400      0.0115
#> # ... with 8 more rows
```
